{
	"watch": ["src", ".env", "package.json", "tsconfig.json", "tsconfig.development.json"],
	"ext": "ts,json",
	"ignore": ["src/**/*.spec.ts", "src/**/*.e2e-spec.ts"],
	"exec": "NODE_ENV=development ts-node -r tsconfig-paths/register --project tsconfig.development.json src/main.ts"
}
